<?xml version="1.0"?>
<!--Icons from directory ""-->
<svg xmlns="http://www.w3.org/2000/svg" width="33" height="231" viewBox="0 0 33 231"><svg xmlns:xlink="http://www.w3.org/1999/xlink" id="arrow-left" xml:space="preserve" height="33" viewBox="0 0 33 33" width="33" version="1.1" y="0" x="0px" enable-background="new 0 0 33 33"><rect y="0" x="0" height="33" width="33" fill="#6F6F6F"/><rect y=".7" x=".7" height="31.7" width="31.7" fill="#fff"/>	<text font-size="39.489" font-family="'OpenSans-Light'" transform="matrix(-1 0 0 1 27.77 31.218)" fill="#6F6F6F">&gt;</text></svg><svg xmlns:xlink="http://www.w3.org/1999/xlink" id="arrow-right" xml:space="preserve" height="33" viewBox="0 0 33 33" width="33" version="1.1" y="33" x="0px" enable-background="new 0 0 33 33"><rect y="0" x="0" height="33" width="33" fill="#6F6F6F"/><rect y=".7" x=".7" height="31.7" width="31.7" fill="#fff"/>	<text font-size="39.489" font-family="'OpenSans-Light'" transform="translate(5.2301 31.218)" fill="#6F6F6F">&gt;</text></svg><svg xmlns:xlink="http://www.w3.org/1999/xlink" id="arrows" xml:space="preserve" height="6" viewBox="0 0 11 6" width="11" version="1.1" y="66" x="0px" enable-background="new 0 0 11 6"><text font-size="10.418" font-family="'OpenSans-Light'" transform="translate(-.4398 6.9221)" fill="#FFFFFF">&gt;&gt;</text></svg><svg xmlns:xlink="http://www.w3.org/1999/xlink" id="nav" xml:space="preserve" height="30" viewBox="0 0 30 30" width="30" version="1.1" y="72" x="0px" enable-background="new 0 0 30 30"><image xlink:href="EE805FD8.jpg" transform="matrix(1.0048 0 0 1.0048 -.071552 .4308)" height="29" width="30" overflow="visible" display="none"/><path d="m0 0v30h30v-30h-30zm29 29h-28v-28h28v28z" fill="#fff"/><rect opacity=".1" height="28" width="28" y="1" x="1" fill="#fff"/>	<text font-size="23.093" font-family="'FontAwesome'" transform="translate(17.752 23.231)" fill="#FFFFFF">&#xF105;</text>	<g fill="#fff">		<line y1="15.8" x2="14.3" x1="23.9" y2="15.8"/>		<rect y="15.1" x="14.3" height="1.5" width="9.7"/>	</g>	<g fill="#fff">		<line y1="15.8" x2="4" x1="7.8" y2="15.8"/>		<rect y="15.1" x="4" height="1.5" width="3.8"/>	</g>	<g fill="#fff">		<line y1="15.8" x2="9.1" x1="12.9" y2="15.8"/>		<rect y="15.1" x="9.1" height="1.5" width="3.8"/>	</g></svg><svg xmlns:xlink="http://www.w3.org/1999/xlink" id="round-social-facebook" xml:space="preserve" height="33" viewBox="0 0 33 33" width="33" version="1.1" y="102" x="0px" enable-background="new 0 0 33 33"><g fill="#fff">	<path d="m33 16.5c0-9.1-7.4-16.5-16.5-16.5s-16.5 7.4-16.5 16.5 7.4 16.5 16.5 16.5 16.5-7.4 16.5-16.5zm-31.5 0c0-8.3 6.7-15 15-15s15 6.7 15 15-6.7 15-15 15-15-6.7-15-15z"/>	<path d="m17.1 26v-9.5h3.1l0.5-3.2h-3.6v-1.6c0-0.8 0.3-1.6 1.5-1.6h2.4v-3.1h-3.4c-2.8 0-3.6 1.9-3.6 4.4v1.9h-1.9v3.2h1.9v9.5h3.1z"/></g></svg><svg xmlns:xlink="http://www.w3.org/1999/xlink" id="round-social-googleplus" xml:space="preserve" height="33" viewBox="0 0 33 33" width="33" version="1.1" y="135" x="0px" enable-background="new 0 0 33 33"><g fill="#fff">	<path d="m18.8 21.7c0-1.6-0.9-2.4-2-3.3l-0.8-0.7c-0.3-0.2-0.6-0.5-0.6-1s0.4-0.8 0.7-1.1c1-0.8 2-1.6 2-3.3 0-1.8-1.1-2.7-1.7-3.2h1.5l1.5-0.8h-4.8c-1.3 0-2.9 0.2-4.2 1.3-1 0.9-1.5 2.1-1.5 3.1 0 1.8 1.4 3.7 3.9 3.7h0.8c-0.1 0.3-0.2 0.5-0.2 0.9 0 0.7 0.4 1.2 0.7 1.6-1.1 0.1-3 0.2-4.5 1.1-1.4 0.8-1.8 2-1.8 2.9 0 1.7 1.6 3.4 5 3.4 3.9-0.2 6-2.4 6-4.6zm-5-6c-2 0-2.9-2.6-2.9-4.2 0-0.6 0.1-1.2 0.5-1.7 0.3-0.5 1-0.8 1.6-0.8 1.9 0 3 2.6 3 4.3 0 0.4 0 1.2-0.6 1.7-0.4 0.4-1 0.7-1.6 0.7zm0 9.4c-2.5 0-4.1-1.2-4.1-2.9s1.5-2.2 2-2.4c1-0.3 2.3-0.4 2.5-0.4h0.5c1.8 1.3 2.6 1.9 2.6 3.1 0 1.6-1.2 2.6-3.5 2.6z"/>	<polygon points="19 17.1 21.6 17.1 21.6 19.7 22.8 19.7 22.8 17.1 25.4 17.1 25.4 15.9 22.8 15.9 22.8 13.3 21.6 13.3 21.6 15.9 19 15.9"/>	<path d="m33 16.5c0-9.1-7.4-16.5-16.5-16.5s-16.5 7.4-16.5 16.5 7.4 16.5 16.5 16.5 16.5-7.4 16.5-16.5zm-31.5 0c0-8.3 6.7-15 15-15s15 6.7 15 15-6.7 15-15 15c-8.3 0-15-6.7-15-15z"/></g></svg><svg xmlns:xlink="http://www.w3.org/1999/xlink" id="round-social-twitter" xml:space="preserve" height="33" viewBox="0 0 33 33" width="33" version="1.1" y="168" x="0px" enable-background="new 0 0 33 33"><g fill="#fff">	<path d="m23.6 13.2v-0.5c0.7-0.5 1.3-1.2 1.8-2-0.7 0.3-1.4 0.5-2.1 0.6 0.8-0.5 1.3-1.2 1.6-2.1-0.7 0.4-1.5 0.7-2.3 0.9-0.7-0.8-1.6-1.2-2.7-1.3-2 0-3.6 1.7-3.6 3.8 0 0.3 0 0.6 0.1 0.9-3-0.2-5.7-1.8-7.5-4.2-0.3 0.6-0.5 1.2-0.5 1.9 0 1.4 0.6 2.6 1.6 3.3-0.6 0-1.2-0.2-1.7-0.5 0 1.9 1.3 3.5 2.9 3.8-0.3 0.1-0.6 0.1-1 0.1-0.2 0-0.5 0-0.7-0.1 0.5 1.5 1.8 2.7 3.4 2.7-1.2 1-2.8 1.7-4.5 1.6-0.3 0-0.6 0-0.9-0.1 1.6 1.1 3.5 1.8 5.6 1.8 6.8 0.3 10.5-5.5 10.5-10.6z"/>	<path d="m33 16.5c0-9.1-7.4-16.5-16.5-16.5s-16.5 7.4-16.5 16.5 7.4 16.5 16.5 16.5 16.5-7.4 16.5-16.5zm-31.5 0c0-8.3 6.7-15 15-15s15 6.7 15 15-6.7 15-15 15-15-6.7-15-15z"/></g></svg><svg xmlns:xlink="http://www.w3.org/1999/xlink" id="social-facebook" xml:space="preserve" height="10" viewBox="12.5 10 5 10" width="5" version="1.1" y="201" x="0px" enable-background="new 12.5 10 5 10"><path d="m15.3 20v-5h1.7l0.3-1.7h-1.9v-0.8c0-0.4 0.1-0.8 0.8-0.8h1.2v-1.7h-1.8c-1.5 0-1.9 1-1.9 2.3v1h-1v1.7h1v5h1.6z" fill="#fff"/></svg><svg xmlns:xlink="http://www.w3.org/1999/xlink" id="social-pinterest" xml:space="preserve" height="11" viewBox="0 0 9 11" width="9" version="1.1" y="211" x="0px" enable-background="new 0 0 9 11">		<path d="m7.5 1.2c-1.4-1.6-3.9-1.5-5.5-0.3-1.4 1-2.3 3.3-1.2 4.9 0.2 0.3 0.6 0.5 1 0.6 0.1 0 0.2 0 0.2-0.1 0.1-0.3 0.2-0.5 0.2-0.7 0-0.1-0.1-0.1-0.1-0.1-1.1-1.2-0.4-2.6 0.6-3.5 0.9-0.8 2.6-1.5 3.6-0.6 0.8 0.6 0.9 1.8 0.8 2.7 0 1.1-0.4 2.3-1.6 2.6-0.3 0.1-0.8 0-1-0.3-0.3-0.4-0.2-0.8-0.1-1.2 0.2-0.7 0.6-1.6 0.2-2.2-0.5-0.8-1.4-0.1-1.6 0.4-0.2 0.4-0.5 1.4 0 1.6-0.5 1.2-0.8 2.4-1 3.6-0.1 0.5-0.2 1.1-0.1 1.7 0 0 0.1 0.4 0.2 0.6 0 0.1 0.1 0.1 0.2 0.1 0.4-0.6 0.8-1.1 1.1-1.7 0.1-0.3 0.2-0.7 0.2-1.1 0.1-0.3 0.2-0.5 0.2-0.8 0.4 0.3 0.8 0.5 1.3 0.6 0.7 0.1 1.4-0.1 2-0.5 0.1-0.1 0.2-0.1 0.2-0.2 0.3-0.3 0.5-0.5 0.7-0.8 1.1-1.6 0.8-4-0.5-5.3zm-5.7 4.5v0 0 0zm-0.7-3.1c-0.1 0.2-0.2 0.4-0.2 0.6 0-0.2 0.1-0.4 0.2-0.6zm6.4-0.8c-0.1-0.1-0.1-0.1 0 0 0 0 0.1 0.1 0.1 0.2 0-0.1 0-0.1-0.1-0.2z" fill="#fff"/></svg><svg xmlns:xlink="http://www.w3.org/1999/xlink" id="social-twitter" xml:space="preserve" height="9" viewBox="0 0 11 9" width="11" version="1.1" y="222" x="0px" enable-background="new 0 0 11 9"><path d="m9.7 2.6v-0.3c0.4-0.3 0.8-0.7 1.1-1.2-0.4 0.2-0.8 0.3-1.2 0.3 0.4-0.3 0.8-0.7 0.9-1.2-0.5 0.3-0.9 0.4-1.4 0.5-0.4-0.4-1-0.7-1.6-0.7-1.2 0-2.1 1-2.1 2.2 0 0.2 0 0.4 0.1 0.5-1.9-0.1-3.5-1-4.5-2.4-0.2 0.3-0.3 0.7-0.3 1.2 0 0.8 0.4 1.5 1 1.9-0.4 0-0.7-0.1-1-0.3 0 1.1 0.7 2 1.7 2.3-0.2 0-0.4 0.1-0.6 0.1h-0.4c0.3 0.8 1.1 1.5 2 1.5-0.7 0.6-1.6 1-2.6 1h-0.6c1 0.7 2.1 1 3.3 1 4 0 6.2-3.4 6.2-6.4z" fill="#fff"/></svg></svg>
